Name,T1C_FR__Feature__r.T1C_FR__External_Id__c,T1C_FR__User_Overridable__c,T1C_FR__Value__c,T1C_FR__External_Id__c
Data,ACE.ALM.ApplicationSettings.Toolbar.ActionButtons.Account.BulkActionGroup.BulkInterestLoader:CORE,false,/apex/T1C_FR__DotDotDot?layoutPath=ACE.Extensions.BulkInterestLoader.Layout&entityId={Id},ACE.ALM.ApplicationSettings.Toolbar.ActionButtons.Account.BulkActionGroup.BulkInterestLoader:CORE:Data
Icon,ACE.ALM.ApplicationSettings.Toolbar.ActionButtons.Account.BulkActionGroup.BulkInterestLoader:CORE,false,Bulk_Interest_Loader_Icon,ACE.ALM.ApplicationSettings.Toolbar.ActionButtons.Account.BulkActionGroup.BulkInterestLoader:CORE:Icon
Label,ACE.ALM.ApplicationSettings.Toolbar.ActionButtons.Account.BulkActionGroup.BulkInterestLoader:CORE,false,Mass Interest Loader,ACE.ALM.ApplicationSettings.Toolbar.ActionButtons.Account.BulkActionGroup.BulkInterestLoader:CORE:Label
Order,ACE.ALM.ApplicationSettings.Toolbar.ActionButtons.Account.BulkActionGroup.BulkInterestLoader:CORE,false,9999,ACE.ALM.ApplicationSettings.Toolbar.ActionButtons.Account.BulkActionGroup.BulkInterestLoader:CORE:Order
Type,ACE.ALM.ApplicationSettings.Toolbar.ActionButtons.Account.BulkActionGroup.BulkInterestLoader:CORE,false,URL,ACE.ALM.ApplicationSettings.Toolbar.ActionButtons.Account.BulkActionGroup.BulkInterestLoader:CORE:Type
DistanceMedium,ACE.Extensions.BulkInterestLoader:CORE,false,5,ACE.Extensions.BulkInterestLoader:CORE:DistanceMedium
DistanceSmall,ACE.Extensions.BulkInterestLoader:CORE,false,1,ACE.Extensions.BulkInterestLoader:CORE:DistanceSmall
DownloadExceptionsButton,ACE.Extensions.BulkInterestLoader:CORE,false,{Locale.DOWNLOAD_EXCEPTIONS_BUTTON},ACE.Extensions.BulkInterestLoader:CORE:DownloadExceptionsButton
ErrorContactNameMissing,ACE.Extensions.BulkInterestLoader:CORE,false,{Locale.ERROR_CONTACT_NAME_MISSING},ACE.Extensions.BulkInterestLoader:CORE:ErrorContactNameMissing
ErrorTickerNameMissing,ACE.Extensions.BulkInterestLoader:CORE,false,{Locale.ERROR_TICKER_NAME_MISSING},ACE.Extensions.BulkInterestLoader:CORE:ErrorTickerNameMissing
EventHandlers,ACE.Extensions.BulkInterestLoader:CORE,false,"<div data-aml-init-handlers='[
    {
      ""controller"" : ""extensions:LoadWindowController"",
      ""options"" : {}  
    },    
    {
        ""controller"" : ""extensions:BulkInterestGridConfigParser"",
        ""options"" : 
        {
            ""gridConfigsMap"" : 
            {
                ""step2Grid1Cols"" : ""ACE.Extensions.BulkInterestLoader.Step2Grid1Columns.GridCols"",
                ""step2Grid2Cols"" : ""ACE.Extensions.BulkInterestLoader.Step2Grid2Columns.GridCols"",
                ""step3GridCols"" : ""ACE.Extensions.BulkInterestLoader.Step3GridColumns.GridCols"",
                ""step4GridCols"" : ""ACE.Extensions.BulkInterestLoader.Step4GridColumns.GridCols"",
                ""step5Grid1Cols"" : ""ACE.Extensions.BulkInterestLoader.Step5Grid1Columns.GridCols"",
                ""step5Grid2Cols"" : ""ACE.Extensions.BulkInterestLoader.Step5Grid2Columns.GridCols"",
                ""step5Grid3Cols"" : ""ACE.Extensions.BulkInterestLoader.Step5Grid3Columns.GridCols""
            }
        }
    }
]'/>

<div data-aml-local-event-handlers='[
    {
        ""events"": [ ""nextStep"" ],
        ""handlers"": [
            {
                ""controller"": ""extensions:FileUploadController"",
                ""options"": {
                    ""fileValidationEvent"": ""fileValidation"",
                    ""gridStep"": 1
                },
                ""executeIf"": ""ESCAPEQUOTES(""{state.stepNumber}"" == 1 && ""{state.interestsFile.length}"" == 1)""
            },
            {
                ""controller"": ""extensions:ReviewMatchesController"",
                ""executeIf"": ""ESCAPEQUOTES(""{state.stepNumber}"" == 1 && ""{state.interests.length}"" >= 0)""
            },
            {
                ""controller"": ""extensions:ReviewInterestsController"",
                ""options"": {
                    ""gridStep"": 3
                },
                ""executeIf"": ""ESCAPEQUOTES(""{state.stepNumber}"" == 2 && ""{state.recommendedMatches.gridData.length}"" >= 0 && ""{state.latestChangesStep}"" <= 2)""
            },
            {
                ""controller"": ""extensions:ExpiredInterestsController"",
                ""executeIf"": ""ESCAPEQUOTES(""{state.stepNumber}"" == 3 && ""{state.interests.length}"" >= 0 && ""{state.latestChangesStep}"" <= 3)"",
                ""options"" : 
                {
                    ""property"" : ""expiringInterests"",
                    ""contIdField"" : ""T1C_Base__Contact__c"",
                    ""intSubIdField"" : ""T1C_Base__Interest_Subject__c"",
                    ""dataProviderProperty"" : ""foundRecords.gridData"",
                    ""gridStep"": 4
                }
            },
            {
                ""controller"": ""extensions:FormatReviewDataController"",
                ""executeIf"": ""ESCAPEQUOTES(""{state.stepNumber}"" == 4)"",
                ""options"" : 
                {
                    ""matchedRecordsData"" : ""foundRecords.gridData"",
                    ""expiredRecordsData"" : ""expiringInterests""
                }
            },
            {
                ""controller"": ""extensions:StepsController"",
                ""options"": {
                    ""prevStepEvent"": ""prevStep"",
                    ""nextStepEvent"": ""nextStep""
                }
            }
        ]
    }
]'/>

<div data-aml-local-event-handlers='[
    {
        ""events"": [ ""prevStep"" ],
        ""handlers"": [
            {
                ""controller"": ""extensions:StepsController"",
                ""options"": {
                    ""prevStepEvent"": ""prevStep"",
                    ""nextStepEvent"": ""nextStep""
                }
            }
        ]
    }
]'/>



<div data-aml-local-event-handlers='[
    {
        ""events"": [ ""downloadExceptions"" ],
        ""handlers"": [
            {
                ""controller"": ""extensions:DownloadExceptionsController"",
                ""options"": {
                    ""dataSource"" : ""interests"",
                    ""notFoundRecordsData"" : ""filteredNotFoundRecords""
                }           
            }
        ]
    }
]'/>

<div data-aml-local-event-handlers='[
    {
        ""events"": [ ""submit"" ],
        ""handlers"": [
            {
                ""controller"": ""extensions:MatchedInterestsSubmitController"",
                ""options"": {}                
            },
            {
                ""controller"": ""extensions:ExpiredInterestsSubmitController"",
                ""options"": {}                
            }
        ]
    }
]'/>",ACE.Extensions.BulkInterestLoader:CORE:EventHandlers
ExceptionsFileName,ACE.Extensions.BulkInterestLoader:CORE,false,{Locale.EXCEPTIONS_FILE_NAME},ACE.Extensions.BulkInterestLoader:CORE:ExceptionsFileName
FileColumnCompanyName,ACE.Extensions.BulkInterestLoader:CORE,false,{Locale.COMPANY_NAME_COLUMN},ACE.Extensions.BulkInterestLoader:CORE:FileColumnCompanyName
FileColumnContactEmail,ACE.Extensions.BulkInterestLoader:CORE,false,{Locale.CONTACT_EMAIL_COLUMN},ACE.Extensions.BulkInterestLoader:CORE:FileColumnContactEmail
FileColumnContactName,ACE.Extensions.BulkInterestLoader:CORE,false,{Locale.CONTACT_NAME_COLUMN},ACE.Extensions.BulkInterestLoader:CORE:FileColumnContactName
FileColumnTickerName,ACE.Extensions.BulkInterestLoader:CORE,false,{Locale.TICKER_NAME_COLUMN},ACE.Extensions.BulkInterestLoader:CORE:FileColumnTickerName
InterestReason,ACE.Extensions.BulkInterestLoader:CORE,false,Interest,ACE.Extensions.BulkInterestLoader:CORE:InterestReason
InterestSource,ACE.Extensions.BulkInterestLoader:CORE,false,Focus List,ACE.Extensions.BulkInterestLoader:CORE:InterestSource
InterestSubjectType,ACE.Extensions.BulkInterestLoader:CORE,false,Ticker,ACE.Extensions.BulkInterestLoader:CORE:InterestSubjectType
Layout,ACE.Extensions.BulkInterestLoader:CORE,false,"<div class=""bil-body-wrapper"" style=""display:none;""  data-aml-properties='{ 
    ""controllers"": [ 
    { 
        ""controller"":""core:domattributechanger"", 
        ""options"": 
        { 
            ""definitions"": [
                { 
                    ""name"": ""style"", 
                    ""valueMatch"": ""display:flex;"", 
                    ""valueNoMatch"": ""display:none;"", 
                    ""rules"": ""ESCAPEQUOTES(""{state.windowIsReady}"" == true)"" 
                }
            ] 
        } 
    } 
]}'>
    <apex-import name=""T1C_Base__ClientCenterControllerImportPage""/>
    <apex-import name=""c__BulkInterestLoaderControllerPage""/>
    <link href=""{Resource.T1C_Base__ALMAssets}/assets/css/common.css"" rel=""stylesheet"" type=""text/css"">
    <link href=""{Resource.T1C_Base__ALMAssets}/assets/css/main-light.css"" rel=""stylesheet"" type=""text/css"">
    <script src=""{Resource.T1C_Base__ALMLib}/src/ace-qai-core.js""/>
    <script src=""{Resource.T1C_Base__ALMLib}/src/ace-qai.js""/>
    <script>
        (function($)
        {
            ACE.CustomEventDispatcher.on(ACE.Event.CHILD_APPLICATION_BRIDGE_LOADED, function()
            {
                return false;
            });
        })(jQuery);
    </script>

    <script src=""{Resource.BulkInterestLoader}""/>
    <script src=""{Resource.BulkInterestLoaderLocale}""/>

    <style>
        .bil-body-wrapper{
            display: flex;
            flex-direction: column;
            height: 100%;
        }

        .bil-main-content{
            padding: 16px;
            box-sizing: border-box;
            width: 100%;
            max-width: 1300px;
            margin-left: auto;
            margin-right: auto;
        }

        .bil-section-wrapper{
            overflow-y: auto;
        }

        .bil-section{
            height: 100%;
            display: flex;
            flex-direction: column;
        }

        .bil-grid{
            min-height: 250px;
            margin-bottom: 8px;
        }

        .bil-grid .slick-group-leftpin{
            position: static!important; 
            left: 0!important;
            top: 0!important;
        }

        .bil-grid .deleteRowButton{
            width: 25px;
            background-size: 20px;
        }
        
        .bil-grid .quickAddButton{
            padding: 0px !important;
            width: 25px;
            margin: 0px;
        }
        
        #step4Grid .slick-cell, #step5Grid2 .slick-cell{
            color: #f24458;
        }

        #step4Grid .slick-group-title, #step5Grid2 .slick-group-title{
            color: #484848;
        }

        /** Collapsible Section **/
        
        .collapsible-section{
            margin-bottom: 8px;
        }

        .collapsible-section.is-expanded{
            flex-grow: 1;
        }

        .collapsible-section-label{
            display: flex;
            align-items: center;
            position: absolute;
            left: 24px;
            width: 100%;
            height: 100%;
            font-weight: bold;
        }

        .collapsible-section-button.toggle-control {
            height: 24px;
            min-height: 24px;
            max-height: 24px;
            font-size: 0!important;
        }

        .collapsible-section-body{
            display: flex;
            flex-direction: column;
            margin-left: 24px;
        }

        .is-expanded .collapsible-section-body{
            flex: 1;
            max-height: 400px;
            min-height: 200px;
            visibility: visible;
        }
        
        .is-collapsed .collapsible-section-body{
            visibility: hidden;
            max-height: 0;
        }
    </style>

    <div data-aml-init-state='[
        { 
            ""name"": ""stepNumber"", 
            ""value"": 1 
        },
        {
            ""name"": ""latestChangesStep"",
            ""value"": 0
        },
        { 
            ""name"": ""interestsFile"", 
            ""value"": [] 
        },
        {
            ""name"": ""recommendedMatches"",
            ""value"": {
                ""gridData"": [],
                ""groupByField"": ""displayType""
            }
        },
        {
            ""name"": ""contactsNotFound"",
            ""value"": {
                ""gridData"": [],
                ""groupByField"": ""displayType""
            }
        },
        {
            ""name"": ""foundRecords"",
            ""value"": {
                ""gridData"": [],
                ""groupByField"": ""contactName""
            }
        },
        {
            ""name"": ""errored"",
            ""value"": false
        },
        {
            ""name"": ""windowIsReady"",
            ""value"": false
        }
    ]'></div>
    <header class=""header fp-header"">
        <div class=""header-labelWrapper fp-header-title-wrapper"">
            <h1 class=""header-title fp-header-title"">Interest Uploader</h1>   
        </div>
    </header>
    <div class=""bil-main-content el-block flex-parent is-vertical el-min-h"">
        <div class=""bil-section-wrapper content-wrapper flex-parent is-card is-vertical el-min-h"" style=""overflow-y: auto;""data-aml-properties='{
            ""controllers"": [
            {
                ""controller"":""core:multiview""
            }
        ]}'>
            <section id=""loadCSVSection"" class=""bil-section"" data-aml-properties='{
                ""visible"" : true,
                ""showEvent"" : ""startStep1""
            }'>
                <header class=""tab-content-header el-section-header"">
                    <div class=""title-wrapper el-section-title-wrapper"">
                        <h2 class=""el-section-title"">{@ACE.Extensions.BulkInterestLoader.Step1Label}</h2>
                    </div>
                </header>
                <p class=""el-info-text"">{@ACE.Extensions.BulkInterestLoader.Step1Desc}</p>
                <div data-aml-properties='{
                    ""controllers"": [ 
                    { 
                        ""controller"": ""core:file-input"", 
                        ""options"": 
                        { 
                            ""allowMultiple"": false,
                            ""acceptableFileTypes"": ["".csv""],
                            ""property"": ""interestsFile""               
                        } 
                    } 
                ]}' style=""margin-bottom: 8px;""></div>
                <p class=""el-warningMessage"" data-aml-properties='{ 
                    ""controllers"": [ 
                    { 
                        ""controller"":""core:domattributechanger"", 
                        ""options"": 
                        { 
                            ""definitions"": [ 
                                { 
                                    ""name"": ""hidden"", 
                                    ""valueMatch"": false, 
                                    ""valueNoMatch"": true, 
                                    ""rules"": ""ESCAPEQUOTES(""{state.errored}"" == true)"" 
                                } 
                            ] 
                        } 
                    } 
                ]}'>{@ACE.Extensions.BulkInterestLoader.Step1Error}</p>
            </section>
            <section id=""matchesSection"" class=""bil-section"" data-aml-properties='{
                ""visible"" : false,
                ""showEvent"" : ""startStep2""
            }'>
                <header class=""tab-content-header el-section-header"">
                    <div class=""title-wrapper el-section-title-wrapper"">
                        <h2 class=""el-section-title"">{@ACE.Extensions.BulkInterestLoader.Step2Label}</h2>
                    </div>
                </header>                
                <p class=""el-info-text"">{@ACE.Extensions.BulkInterestLoader.Step2Desc}</p>
                <div class=""collapsible-section el-block is-full flex-parent is-vertical toggle-group-parent"" data-aml-properties='{
                    ""controllers"": [
                        {
                            ""controller"": ""core:toggleable"",
                            ""options"": {
                                ""toggleHandle"": "".toggle-control"",
                                ""states"": [
                                    {
                                        ""name"": ""notToggled"",
                                        ""cssClass"": ""is-expanded""
                                    },
                                    {
                                        ""name"": ""toggled"",
                                        ""cssClass"": ""is-collapsed""
                                    }
                                ],
                                ""defaultState"" : ""toggled""
                            }
                        }                  
                    ]
                }'>
                    <div class=""toggle-btn-wrapper flex-parent is-full"">
                        <div class=""el-toggle-icon""/>
                        <p class=""collapsible-section-label el-info-text"">Recommended Matches</p>
                        <button class=""collapsible-section-button toggle-control""/>
                    </div>
                    <div class=""collapsible-section-body"">
                        <div id=""recommendedMatchesFilter"" class=""el-item no-mar-btm"" data-aml-properties='{
                            ""controllers"" : [
                            {
                                ""controller"" : ""core:text-input"",
                                ""options"" : 
                                {
                                    ""maxChars""      : ""255"",
                                    ""property""      : ""recommendedMatchesFilterText"",
                                    ""placeholder""   : ""{@ACE.Extensions.BulkInterestLoader.RecommendedMatchesGridFilter}""
                                }
                            }
                        ]}' style=""margin-bottom: 8px;""/>               
                        <div class=""bil-grid tab-panel-left-grid-section"" data-aml-properties='{ 
                            ""controllers"": [
                                { 
                                    ""controller"": ""extensions:BulkInterestsGridController"", 
                                    ""options"": {
                                        ""columns""       : ""{state.step2Grid1Cols}"",
                                        ""dataProvider""  : ""{state.recommendedMatches.gridData}"",
                                        ""enableGrouping"": true,
                                        ""groupByField""  : ""error"",
                                        ""textFilter""    : ""#recommendedMatchesFilter"",
                                        ""enableCheckBox"": true,
                                        ""relatedDataProvider"": ""contactsNotFound.gridData"",
                                        ""gridStep""      : 2,
                                        ""stepNumber""    : ""{state.stepNumber}""
                                    }
                                }
                            ]
                        }' style=""margin-bottom: 8px;""/>
                    </div>
                </div>
                <div class=""collapsible-section el-block is-full flex-parent is-vertical toggle-group-parent"" data-aml-properties='{
                    ""controllers"": [
                        {
                            ""controller"": ""core:toggleable"",
                            ""options"": {
                                ""toggleHandle"": "".toggle-control"",
                                ""states"": [
                                    {
                                        ""name"": ""notToggled"",
                                        ""cssClass"": ""is-expanded""
                                    },
                                    {
                                        ""name"": ""toggled"",
                                        ""cssClass"": ""is-collapsed""
                                    }
                                ],
                                ""defaultState"" : ""toggled""
                            }
                        }                  
                    ]
                }'>
                    <div class=""toggle-btn-wrapper flex-parent is-full"">
                        <div class=""el-toggle-icon""/>
                        <p class=""collapsible-section-label el-info-text"">Missing Contacts</p>
                        <button class=""collapsible-section-button toggle-control""/>
                    </div>
                    <div class=""collapsible-section-body"">
                        <div id=""contactsNotFoundFilter"" class=""el-item no-mar-btm"" data-aml-properties='{
                            ""controllers"" : [
                            {
                                ""controller"" : ""core:text-input"",
                                ""options"" : 
                                {
                                    ""maxChars""      : ""255"",
                                    ""property""      : ""contactsNotFoundFilterText"",
                                    ""placeholder""   : ""{@ACE.Extensions.BulkInterestLoader.RecommendedMatchesGridFilter}""
                                }
                            }
                        ]}' style=""margin-bottom: 8px;""/>           
                        <div id=""contactsNotFoundGrid"" class=""bil-grid tab-panel-left-grid-section"" data-aml-properties='{ 
                    ""controllers"": [ 
                        { 
                            ""controller"": ""extensions:BulkInterestsGridController"", 
                            ""options"": {
                                ""columns""       : ""{state.step2Grid2Cols}"",
                                ""dataProvider""  : ""{state.contactsNotFound.gridData}"",
                                ""enableGrouping"": true,
                                ""groupByField""  : ""error"",
                                ""textFilter""    : ""#contactsNotFoundFilter"",
                                ""enableCheckBox"": false,
                                ""gridStep""      : 2,
                                ""stepNumber""    : ""{state.stepNumber}"",
                                ""relatedDataProvider"": ""recommendedMatches.gridData"",
                                ""enableQuickAdd"": true
                            }
                        }
                    ]
                        }'/>
                    </div>
                </div>
            </section>        
            <section id=""interestsSection"" class=""bil-section"" data-aml-properties='{
                ""visible"" : false,
                ""showEvent"" : ""startStep3""
            }'>     
                <header class=""tab-content-header el-section-header"">
                    <div class=""title-wrapper el-section-title-wrapper"">
                        <h2 class=""el-section-title"">{@ACE.Extensions.BulkInterestLoader.Step3Label}</h2>
                    </div>
                </header>                
                <p class=""el-info-text"">{@ACE.Extensions.BulkInterestLoader.Step3Desc}</p>
                <div id=""foundRecordsFilter"" class=""el-item no-mar-btm"" data-aml-properties='{
                    ""controllers"" : [
                    {
                        ""controller"" : ""core:text-input"",
                        ""options"" : 
                        {
                            ""maxChars""      : ""255"",
                            ""property""      : ""foundRecordsFilterText"",
                            ""placeholder""   : ""{@ACE.Extensions.BulkInterestLoader.RecommendedMatchesGridFilter}""
                        }
                    }
                ]}' style=""margin-bottom: 8px;""/> 
                <div class=""bil-grid tab-panel-left-grid-section"" data-aml-properties='{ 
                    ""controllers"": [ 
                        { 
                            ""controller"": ""extensions:BulkInterestsGridController"", 
                            ""options"": {
                                ""columns""       : ""{state.step3GridCols}"",
                                ""dataProvider""  : ""{state.foundRecords.gridData}"",
                                ""enableGrouping"": true,
                                ""groupByField""  : ""{state.foundRecords.groupByField}"",
                                ""textFilter""    : ""#foundRecordsFilter"",
                                ""enableCheckBox"": true,
                                ""gridStep""      : 3
                            }
                        }
                    ]
                }' style=""margin-bottom: 8px;""/>
            </section>
            <section id=""expiredSection"" class=""bil-section"" data-aml-properties='{
                ""visible"" : false,
                ""showEvent"" : ""startStep4""
            }'>
                <header class=""tab-content-header el-section-header"">
                    <div class=""title-wrapper el-section-title-wrapper"">
                        <h2 class=""el-section-title"">{@ACE.Extensions.BulkInterestLoader.Step4Label}</h2>
                    </div>
                </header>                
                <p class=""el-info-text"">{@ACE.Extensions.BulkInterestLoader.Step4Desc}</p>
                <div id=""expiredInterestsFilter"" class=""el-item no-mar-btm"" data-aml-properties='{
                        ""controllers"" : [
                        {
                            ""controller"" : ""core:text-input"",
                            ""options"" : 
                            {
                                ""maxChars""      : ""255"",
                                ""property""      : ""expiredInterestsFilterText"",
                                ""placeholder""   : ""{@ACE.Extensions.BulkInterestLoader.RecommendedMatchesGridFilter}""
                            }
                        }
                    ]}' style=""margin-bottom: 8px;""></div> 
                <div id=""step4Grid"" class=""bil-grid tab-panel-left-grid-section"" data-aml-properties='{ 
                    ""controllers"": [ 
                        { 
                            ""controller"": ""extensions:BulkInterestsGridController"", 
                            ""options"": {
                                ""columns""       : ""{state.step4GridCols}"",
                                ""dataProvider""  : ""{state.expiringInterests}"",
                                ""enableGrouping"": true,
                                ""groupByField""  : ""data.T1C_Base__Contact__r.Name"",
                                ""textFilter""    : ""#expiredInterestsFilter"",
                                ""enableCheckBox"": true,
                                ""gridStep""      : 4
                            }
                        }
                    ]
                }' style=""margin-bottom: 8px;""></div>
            </section>          
            <section id=""finalizeSection"" class=""bil-section"" data-aml-properties='{
                ""visible"" : false,
                ""showEvent"" : ""startStep5""
            }'>
                <header class=""tab-content-header el-section-header"">
                    <div class=""title-wrapper el-section-title-wrapper"">
                        <h2 class=""el-section-title"">{@ACE.Extensions.BulkInterestLoader.Step5Label}</h2>
                    </div>
                </header>
                <div class=""collapsible-section el-block is-full flex-parent is-vertical toggle-group-parent"" data-aml-properties='{
                    ""controllers"": [
                        {
                            ""controller"": ""core:toggleable"",
                            ""options"": {
                                ""toggleHandle"": "".toggle-control"",
                                ""states"": [
                                    {
                                        ""name"": ""notToggled"",
                                        ""cssClass"": ""is-expanded""
                                    },
                                    {
                                        ""name"": ""toggled"",
                                        ""cssClass"": ""is-collapsed""
                                    }
                                ],
                                ""defaultState"" : ""toggled""
                            }
                        }                  
                    ]
                }'>
                    <div class=""toggle-btn-wrapper flex-parent is-full"">
                        <div class=""el-toggle-icon""/>
                        <p class=""collapsible-section-label el-info-text"">{@ACE.Extensions.BulkInterestLoader.Step5LabelMatched} ({state.filteredMatchedRecords.length})</p>
                        <button class=""collapsible-section-button toggle-control""/>
                    </div>
                    <div class=""collapsible-section-body"">
                        <p class=""el-info-text"">{@ACE.Extensions.BulkInterestLoader.Step5DescMatched}</p>
                        <div id=""reviewMatchedGridFilter"" class=""el-item no-mar-btm"" data-aml-properties='{
                            ""controllers"" : [
                            {
                                ""controller"" : ""core:text-input"",
                                ""options"" : 
                                {
                                    ""maxChars""      : ""255"",
                                    ""property""      : ""reviewMatchedGridFilterText"",
                                    ""placeholder""   : ""{@ACE.Extensions.BulkInterestLoader.RecommendedMatchesGridFilter}""
                                }
                            }
                        ]}' style=""margin-bottom: 8px;""/> 
                        <div class=""bil-grid tab-panel-left-grid-section"" data-aml-properties='{ 
                            ""controllers"": [ 
                                { 
                                    ""controller"": ""extensions:BulkInterestsGridController"", 
                                    ""options"": {
                                        ""columns""       : ""{state.step5Grid1Cols}"",
                                        ""dataProvider""  : ""{state.filteredMatchedRecords}"",
                                        ""enableGrouping"": true,
                                        ""groupByField""  : ""contactName"",
                                        ""textFilter""    : ""#reviewMatchedGridFilter"",
                                        ""gridStep""      : 5
                                    }
                                }
                            ]
                        }'/>
                    </div>
                </div>
                <div class=""collapsible-section el-block is-full flex-parent is-vertical toggle-group-parent"" data-aml-properties='{
                    ""controllers"": [
                        {
                            ""controller"": ""core:toggleable"",
                            ""options"": {
                                ""toggleHandle"": "".toggle-control"",
                                ""states"": [
                                    {
                                        ""name"": ""notToggled"",
                                        ""cssClass"": ""is-expanded""
                                    },
                                    {
                                        ""name"": ""toggled"",
                                        ""cssClass"": ""is-collapsed""
                                    }
                                ],
                                ""defaultState"" : ""toggled""
                            }
                        }                  
                    ]
                }'>
                    <div class=""toggle-btn-wrapper flex-parent is-full"">
                        <div class=""el-toggle-icon""/>
                        <p class=""collapsible-section-label el-info-text"">{@ACE.Extensions.BulkInterestLoader.Step5LabelExpired} ({state.filteredExpiredRecords.length})</p>
                        <button class=""collapsible-section-button toggle-control""/>
                    </div>
                    <div class=""collapsible-section-body"">
                        <p class=""el-info-text"">{@ACE.Extensions.BulkInterestLoader.Step5DescExpired}</p>
                        <div id=""reviewExpiredGridFilter"" class=""el-item no-mar-btm"" data-aml-properties='{
                            ""controllers"" : [
                            {
                                ""controller"" : ""core:text-input"",
                                ""options"" : 
                                {
                                    ""maxChars""      : ""255"",
                                    ""property""      : ""reviewExpiredGridFilterText"",
                                    ""placeholder""   : ""{@ACE.Extensions.BulkInterestLoader.RecommendedMatchesGridFilter}""
                                }
                            }
                        ]}' style=""margin-bottom: 8px;""/> 
                        <div id=""step5Grid2"" class=""bil-grid tab-panel-left-grid-section"" data-aml-properties='{ 
                            ""controllers"": [ 
                                { 
                                    ""controller"": ""extensions:BulkInterestsGridController"", 
                                    ""options"": {
                                        ""columns""       : ""{state.step5Grid2Cols}"",
                                        ""dataProvider""  : ""{state.filteredExpiredRecords}"",
                                        ""enableGrouping"": true,
                                        ""groupByField""  : ""data.T1C_Base__Contact__r.Name"",
                                        ""textFilter""    : ""#reviewExpiredGridFilter"",
                                        ""gridStep""      : 5
                                    }
                                }
                            ]
                        }'/>
                    </div>
                </div>
                <div class=""collapsible-section el-block is-full flex-parent is-vertical toggle-group-parent"" data-aml-properties='{
                    ""controllers"": [
                        {
                            ""controller"": ""core:toggleable"",
                            ""options"": {
                                ""toggleHandle"": "".toggle-control"",
                                ""states"": [
                                    {
                                        ""name"": ""notToggled"",
                                        ""cssClass"": ""is-expanded""
                                    },
                                    {
                                        ""name"": ""toggled"",
                                        ""cssClass"": ""is-collapsed""
                                    }
                                ],
                                ""defaultState"" : ""toggled""
                            }
                        }                  
                    ]
                }'>
                    <div class=""toggle-btn-wrapper flex-parent is-full"">
                        <div class=""el-toggle-icon""/>
                        <p class=""collapsible-section-label el-info-text"">{@ACE.Extensions.BulkInterestLoader.Step5LabelNotFound} (<span id=""recordsNotFoundItemsCounter"">{state.filteredNotFoundRecords.length}</span>)</p>
                        <button class=""collapsible-section-button toggle-control""/>
                    </div>
                    <div class=""collapsible-section-body"">
                        <p class=""el-info-text"">{@ACE.Extensions.BulkInterestLoader.Step5DescNotFound}</p>
                        <div id=""reviewNotFoundGridFilter"" class=""el-item no-mar-btm"" data-aml-properties='{
                            ""controllers"" : [
                            {
                                ""controller"" : ""core:text-input"",
                                ""options"" : 
                                {
                                    ""maxChars""      : ""255"",
                                    ""property""      : ""reviewNotFoundGridFilterText"",
                                    ""placeholder""   : ""{@ACE.Extensions.BulkInterestLoader.RecommendedMatchesGridFilter}""
                                }
                            }
                        ]}' style=""margin-bottom: 8px;""/> 
                        <div class=""bil-grid tab-panel-left-grid-section"" data-aml-properties='{ 
                            ""controllers"": [ 
                                { 
                                    ""controller"": ""extensions:BulkInterestsGridController"", 
                                    ""options"": {
                                        ""columns""           : ""{state.step5Grid3Cols}"",
                                        ""dataProvider""      : ""{state.filteredNotFoundRecords}"",
                                        ""textFilter""        : ""#reviewNotFoundGridFilter"",
                                        ""enableGrouping""    : true,
                                        ""groupByField""      : ""contactName"",
                                        ""enableDeleteRow""   : true,
                                        ""itemsCounter""       : ""recordsNotFoundItemsCounter"",
                                        ""gridStep""          : 5
                                    }
                                }
                            ]
                        }'/>
                    </div>
                </div>
            </section>
        </div>
    </div>
    <footer class=""fp-footer flex-parent ui-dialog-buttonpane ui-widget-content ui-helper-clearfix is-end"">
        <button type=""button"" class=""cancelButton ui-button ui-widget ui-state-default ui-corner-all ui-button-text-only""
            data-aml-local-events='{
                ""click"": [
                    {
                        ""name"":""prevStep"",
                        ""allowBubbledEvents"":true, 
                        ""eventParams"": {
                            ""eventName"": ""prevStepEvent""
                        }
                    }
                ]
            }'>
            <span class=""ui-button-text"">{Locale.BACK}</span>
        </button>
        <button type=""button"" id=""FooterSaveBtn"" class=""save-button confirmButton""
            data-aml-local-events='{
                ""click"": [
                    {
                        ""name"":""nextStep"",
                        ""allowBubbledEvents"":true,
                        ""eventParams"": {
                            ""eventName"": ""nextStepEvent""
                        }
                    }
                ]
            }'
            data-aml-properties='{ 
                ""controllers"": [ 
                { 
                    ""controller"":""core:domattributechanger"", 
                    ""options"": 
                    { 
                        ""definitions"": [ 
                            { 
                                ""name"": ""disabled"", 
                                ""valueMatch"": false, 
                                ""valueNoMatch"": true, 
                                ""rules"": ""ESCAPEQUOTES((""{state.stepNumber}"" == 1 && ""{state.interestsFile.length}"" == 1) || ""{state.stepNumber}"" != 1)"" 
                            } 
                        ] 
                    } 
                },
                { 
                    ""controller"":""core:domattributechanger"", 
                    ""options"": 
                    { 
                        ""definitions"": [ 
                            { 
                                ""name"": ""style"", 
                                ""valueMatch"": """", 
                                ""valueNoMatch"": ""display:none;"", 
                                ""rules"": ""ESCAPEQUOTES(""{state.stepNumber}"" != 5)"" 
                            } 
                        ]
                    } 
                }  
            ]}'>
            <span class=""ui-button-text"">{Locale.NEXT}</span>
        </button>
        <button type=""button"" id=""FooterDownloadExceptionsBtn"" class=""save-button confirmButton""
        data-aml-local-events='{
            ""click"": [
                {
                    ""name"":""downloadExceptions"",
                    ""allowBubbledEvents"":true
                }
            ]
        }'
        data-aml-properties='{ 
            ""controllers"": [ 
            { 
                ""controller"":""core:domattributechanger"", 
                ""options"": 
                { 
                    ""definitions"": [ 
                        { 
                            ""name"": ""style"", 
                            ""valueMatch"": """", 
                            ""valueNoMatch"": ""display:none;"", 
                            ""rules"": ""ESCAPEQUOTES(""{state.stepNumber}"" == 5)"" 
                        } 
                    ] 
                } 
            } 
        ]}'>
            <span class=""ui-button-text"">{@ACE.Extensions.BulkInterestLoader.DownloadExceptionsButton}</span>
        </button>
        <button type=""button"" id=""FooterSubmitBtn"" class=""save-button confirmButton""
            data-aml-local-events='{
                ""click"": [
                    {
                        ""name"":""submit"",
                        ""allowBubbledEvents"":true
                    }
                ]
            }'
            data-aml-properties='{ 
                ""controllers"": [ 
                { 
                    ""controller"":""core:domattributechanger"", 
                    ""options"": 
                    { 
                        ""definitions"": [ 
                            { 
                                ""name"": ""style"", 
                                ""valueMatch"": """", 
                                ""valueNoMatch"": ""display:none;"", 
                                ""rules"": ""ESCAPEQUOTES(""{state.stepNumber}"" == 5)"" 
                            } 
                        ] 
                    } 
                } 
            ]}'>
            <span class=""ui-button-text"">{@ACE.Extensions.BulkInterestLoader.SubmitButton}</span>
        </button>
    </footer>
</div>

{@ACE.Extensions.BulkInterestLoader.EventHandlers}",ACE.Extensions.BulkInterestLoader:CORE:Layout
RecommendedMatchesGridFilter,ACE.Extensions.BulkInterestLoader:CORE,false,{Locale.RECOMMENDED_MATCHES_GRID_FILTER},ACE.Extensions.BulkInterestLoader:CORE:RecommendedMatchesGridFilter
Step1Desc,ACE.Extensions.BulkInterestLoader:CORE,false,{Locale.STEP1_DESC},ACE.Extensions.BulkInterestLoader:CORE:Step1Desc
Step1Error,ACE.Extensions.BulkInterestLoader:CORE,false,{Locale.STEP1_ERROR},ACE.Extensions.BulkInterestLoader:CORE:Step1Error
Step1Label,ACE.Extensions.BulkInterestLoader:CORE,false,{Locale.STEP1_LABEL},ACE.Extensions.BulkInterestLoader:CORE:Step1Label
Step2Desc,ACE.Extensions.BulkInterestLoader:CORE,false,{Locale.STEP2_DESC},ACE.Extensions.BulkInterestLoader:CORE:Step2Desc
Step2Label,ACE.Extensions.BulkInterestLoader:CORE,false,{Locale.STEP2_LABEL},ACE.Extensions.BulkInterestLoader:CORE:Step2Label
Step3Desc,ACE.Extensions.BulkInterestLoader:CORE,false,{Locale.STEP3_DESC},ACE.Extensions.BulkInterestLoader:CORE:Step3Desc
Step3Label,ACE.Extensions.BulkInterestLoader:CORE,false,{Locale.STEP3_LABEL},ACE.Extensions.BulkInterestLoader:CORE:Step3Label
Step4Desc,ACE.Extensions.BulkInterestLoader:CORE,false,{Locale.STEP4_DESC},ACE.Extensions.BulkInterestLoader:CORE:Step4Desc
Step4Label,ACE.Extensions.BulkInterestLoader:CORE,false,{Locale.STEP4_LABEL},ACE.Extensions.BulkInterestLoader:CORE:Step4Label
Step5DescExpired,ACE.Extensions.BulkInterestLoader:CORE,false,{Locale.STEP5_DESC_EXPIRED},ACE.Extensions.BulkInterestLoader:CORE:Step5DescExpired
Step5DescMatched,ACE.Extensions.BulkInterestLoader:CORE,false,{Locale.STEP5_DESC_MATCHED},ACE.Extensions.BulkInterestLoader:CORE:Step5DescMatched
Step5DescNotFound,ACE.Extensions.BulkInterestLoader:CORE,false,{Locale.STEP5_DESC_NOT_FOUND},ACE.Extensions.BulkInterestLoader:CORE:Step5DescNotFound
Step5Label,ACE.Extensions.BulkInterestLoader:CORE,false,{Locale.STEP5_LABEL},ACE.Extensions.BulkInterestLoader:CORE:Step5Label
Step5LabelExpired,ACE.Extensions.BulkInterestLoader:CORE,false,{Locale.STEP5_LABEL_EXPIRED},ACE.Extensions.BulkInterestLoader:CORE:Step5LabelExpired
Step5LabelMatched,ACE.Extensions.BulkInterestLoader:CORE,false,{Locale.STEP5_LABEL_MATCHED},ACE.Extensions.BulkInterestLoader:CORE:Step5LabelMatched
Step5LabelNotFound,ACE.Extensions.BulkInterestLoader:CORE,false,{Locale.STEP5_LABEL_NOT_FOUND},ACE.Extensions.BulkInterestLoader:CORE:Step5LabelNotFound
SubmitButton,ACE.Extensions.BulkInterestLoader:CORE,false,{Locale.SUBMIT_BUTTON},ACE.Extensions.BulkInterestLoader:CORE:SubmitButton
DataField,ACE.Extensions.BulkInterestLoader.Step2Grid1Columns.GridCols.Error:CORE,false,error,ACE.Extensions.BulkInterestLoader.Step2Grid1Columns.GridCols.Error:CORE:DataField
FieldType,ACE.Extensions.BulkInterestLoader.Step2Grid1Columns.GridCols.Error:CORE,false,STRING,ACE.Extensions.BulkInterestLoader.Step2Grid1Columns.GridCols.Error:CORE:FieldType
Label,ACE.Extensions.BulkInterestLoader.Step2Grid1Columns.GridCols.Error:CORE,false,Error,ACE.Extensions.BulkInterestLoader.Step2Grid1Columns.GridCols.Error:CORE:Label
Visible,ACE.Extensions.BulkInterestLoader.Step2Grid1Columns.GridCols.Error:CORE,false,FALSE,ACE.Extensions.BulkInterestLoader.Step2Grid1Columns.GridCols.Error:CORE:Visible
DataField,ACE.Extensions.BulkInterestLoader.Step2Grid1Columns.GridCols.NewValue:CORE,false,displayValue,ACE.Extensions.BulkInterestLoader.Step2Grid1Columns.GridCols.NewValue:CORE:DataField
FieldType,ACE.Extensions.BulkInterestLoader.Step2Grid1Columns.GridCols.NewValue:CORE,false,STRING,ACE.Extensions.BulkInterestLoader.Step2Grid1Columns.GridCols.NewValue:CORE:FieldType
Label,ACE.Extensions.BulkInterestLoader.Step2Grid1Columns.GridCols.NewValue:CORE,false,Recommended Match,ACE.Extensions.BulkInterestLoader.Step2Grid1Columns.GridCols.NewValue:CORE:Label
Order,ACE.Extensions.BulkInterestLoader.Step2Grid1Columns.GridCols.NewValue:CORE,false,2,ACE.Extensions.BulkInterestLoader.Step2Grid1Columns.GridCols.NewValue:CORE:Order
Visible,ACE.Extensions.BulkInterestLoader.Step2Grid1Columns.GridCols.NewValue:CORE,false,TRUE,ACE.Extensions.BulkInterestLoader.Step2Grid1Columns.GridCols.NewValue:CORE:Visible
DataField,ACE.Extensions.BulkInterestLoader.Step2Grid1Columns.GridCols.OldValue:CORE,false,oldValue,ACE.Extensions.BulkInterestLoader.Step2Grid1Columns.GridCols.OldValue:CORE:DataField
FieldType,ACE.Extensions.BulkInterestLoader.Step2Grid1Columns.GridCols.OldValue:CORE,false,STRING,ACE.Extensions.BulkInterestLoader.Step2Grid1Columns.GridCols.OldValue:CORE:FieldType
Label,ACE.Extensions.BulkInterestLoader.Step2Grid1Columns.GridCols.OldValue:CORE,false,Records,ACE.Extensions.BulkInterestLoader.Step2Grid1Columns.GridCols.OldValue:CORE:Label
Order,ACE.Extensions.BulkInterestLoader.Step2Grid1Columns.GridCols.OldValue:CORE,false,1,ACE.Extensions.BulkInterestLoader.Step2Grid1Columns.GridCols.OldValue:CORE:Order
Visible,ACE.Extensions.BulkInterestLoader.Step2Grid1Columns.GridCols.OldValue:CORE,false,TRUE,ACE.Extensions.BulkInterestLoader.Step2Grid1Columns.GridCols.OldValue:CORE:Visible
DataField,ACE.Extensions.BulkInterestLoader.Step2Grid2Columns.GridCols.Error:CORE,false,error,ACE.Extensions.BulkInterestLoader.Step2Grid2Columns.GridCols.Error:CORE:DataField
FieldType,ACE.Extensions.BulkInterestLoader.Step2Grid2Columns.GridCols.Error:CORE,false,STRING,ACE.Extensions.BulkInterestLoader.Step2Grid2Columns.GridCols.Error:CORE:FieldType
Label,ACE.Extensions.BulkInterestLoader.Step2Grid2Columns.GridCols.Error:CORE,false,Error,ACE.Extensions.BulkInterestLoader.Step2Grid2Columns.GridCols.Error:CORE:Label
Visible,ACE.Extensions.BulkInterestLoader.Step2Grid2Columns.GridCols.Error:CORE,false,FALSE,ACE.Extensions.BulkInterestLoader.Step2Grid2Columns.GridCols.Error:CORE:Visible
DataField,ACE.Extensions.BulkInterestLoader.Step2Grid2Columns.GridCols.OldValue:CORE,false,oldValue,ACE.Extensions.BulkInterestLoader.Step2Grid2Columns.GridCols.OldValue:CORE:DataField
FieldType,ACE.Extensions.BulkInterestLoader.Step2Grid2Columns.GridCols.OldValue:CORE,false,STRING,ACE.Extensions.BulkInterestLoader.Step2Grid2Columns.GridCols.OldValue:CORE:FieldType
Label,ACE.Extensions.BulkInterestLoader.Step2Grid2Columns.GridCols.OldValue:CORE,false,Records,ACE.Extensions.BulkInterestLoader.Step2Grid2Columns.GridCols.OldValue:CORE:Label
Order,ACE.Extensions.BulkInterestLoader.Step2Grid2Columns.GridCols.OldValue:CORE,false,1,ACE.Extensions.BulkInterestLoader.Step2Grid2Columns.GridCols.OldValue:CORE:Order
Visible,ACE.Extensions.BulkInterestLoader.Step2Grid2Columns.GridCols.OldValue:CORE,false,TRUE,ACE.Extensions.BulkInterestLoader.Step2Grid2Columns.GridCols.OldValue:CORE:Visible
DataField,ACE.Extensions.BulkInterestLoader.Step3GridColumns.GridCols.ContactName:CORE,false,contactName,ACE.Extensions.BulkInterestLoader.Step3GridColumns.GridCols.ContactName:CORE:DataField
FieldType,ACE.Extensions.BulkInterestLoader.Step3GridColumns.GridCols.ContactName:CORE,false,STRING,ACE.Extensions.BulkInterestLoader.Step3GridColumns.GridCols.ContactName:CORE:FieldType
Label,ACE.Extensions.BulkInterestLoader.Step3GridColumns.GridCols.ContactName:CORE,false,Contact Name,ACE.Extensions.BulkInterestLoader.Step3GridColumns.GridCols.ContactName:CORE:Label
Order,ACE.Extensions.BulkInterestLoader.Step3GridColumns.GridCols.ContactName:CORE,false,0,ACE.Extensions.BulkInterestLoader.Step3GridColumns.GridCols.ContactName:CORE:Order
Visible,ACE.Extensions.BulkInterestLoader.Step3GridColumns.GridCols.ContactName:CORE,false,TRUE,ACE.Extensions.BulkInterestLoader.Step3GridColumns.GridCols.ContactName:CORE:Visible
DataField,ACE.Extensions.BulkInterestLoader.Step3GridColumns.GridCols.InterestSubjectDescription:CORE,false,interestSubjectDescription,ACE.Extensions.BulkInterestLoader.Step3GridColumns.GridCols.InterestSubjectDescription:CORE:DataField
FieldType,ACE.Extensions.BulkInterestLoader.Step3GridColumns.GridCols.InterestSubjectDescription:CORE,false,STRING,ACE.Extensions.BulkInterestLoader.Step3GridColumns.GridCols.InterestSubjectDescription:CORE:FieldType
Label,ACE.Extensions.BulkInterestLoader.Step3GridColumns.GridCols.InterestSubjectDescription:CORE,false,Interest Subject Description,ACE.Extensions.BulkInterestLoader.Step3GridColumns.GridCols.InterestSubjectDescription:CORE:Label
Order,ACE.Extensions.BulkInterestLoader.Step3GridColumns.GridCols.InterestSubjectDescription:CORE,false,2,ACE.Extensions.BulkInterestLoader.Step3GridColumns.GridCols.InterestSubjectDescription:CORE:Order
Visible,ACE.Extensions.BulkInterestLoader.Step3GridColumns.GridCols.InterestSubjectDescription:CORE,false,TRUE,ACE.Extensions.BulkInterestLoader.Step3GridColumns.GridCols.InterestSubjectDescription:CORE:Visible
DataField,ACE.Extensions.BulkInterestLoader.Step3GridColumns.GridCols.InterestSubjectName:CORE,false,interestSubjectName,ACE.Extensions.BulkInterestLoader.Step3GridColumns.GridCols.InterestSubjectName:CORE:DataField
FieldType,ACE.Extensions.BulkInterestLoader.Step3GridColumns.GridCols.InterestSubjectName:CORE,false,STRING,ACE.Extensions.BulkInterestLoader.Step3GridColumns.GridCols.InterestSubjectName:CORE:FieldType
Label,ACE.Extensions.BulkInterestLoader.Step3GridColumns.GridCols.InterestSubjectName:CORE,false,Interest Subject Name,ACE.Extensions.BulkInterestLoader.Step3GridColumns.GridCols.InterestSubjectName:CORE:Label
Order,ACE.Extensions.BulkInterestLoader.Step3GridColumns.GridCols.InterestSubjectName:CORE,false,1,ACE.Extensions.BulkInterestLoader.Step3GridColumns.GridCols.InterestSubjectName:CORE:Order
Visible,ACE.Extensions.BulkInterestLoader.Step3GridColumns.GridCols.InterestSubjectName:CORE,false,TRUE,ACE.Extensions.BulkInterestLoader.Step3GridColumns.GridCols.InterestSubjectName:CORE:Visible
DataField,ACE.Extensions.BulkInterestLoader.Step4GridColumns.GridCols.ContactName:CORE,false,data.T1C_Base__Contact__r.Name,ACE.Extensions.BulkInterestLoader.Step4GridColumns.GridCols.ContactName:CORE:DataField
FieldType,ACE.Extensions.BulkInterestLoader.Step4GridColumns.GridCols.ContactName:CORE,false,STRING,ACE.Extensions.BulkInterestLoader.Step4GridColumns.GridCols.ContactName:CORE:FieldType
Id,ACE.Extensions.BulkInterestLoader.Step4GridColumns.GridCols.ContactName:CORE,false,contName,ACE.Extensions.BulkInterestLoader.Step4GridColumns.GridCols.ContactName:CORE:Id
Label,ACE.Extensions.BulkInterestLoader.Step4GridColumns.GridCols.ContactName:CORE,false,Contact Name,ACE.Extensions.BulkInterestLoader.Step4GridColumns.GridCols.ContactName:CORE:Label
Order,ACE.Extensions.BulkInterestLoader.Step4GridColumns.GridCols.ContactName:CORE,false,1,ACE.Extensions.BulkInterestLoader.Step4GridColumns.GridCols.ContactName:CORE:Order
Visible,ACE.Extensions.BulkInterestLoader.Step4GridColumns.GridCols.ContactName:CORE,false,TRUE,ACE.Extensions.BulkInterestLoader.Step4GridColumns.GridCols.ContactName:CORE:Visible
Width,ACE.Extensions.BulkInterestLoader.Step4GridColumns.GridCols.ContactName:CORE,false,140,ACE.Extensions.BulkInterestLoader.Step4GridColumns.GridCols.ContactName:CORE:Width
DataField,ACE.Extensions.BulkInterestLoader.Step4GridColumns.GridCols.InterestDesc:CORE,false,data.T1C_Base__Interest_Subject__r.T1C_Base__Description__c,ACE.Extensions.BulkInterestLoader.Step4GridColumns.GridCols.InterestDesc:CORE:DataField
FieldType,ACE.Extensions.BulkInterestLoader.Step4GridColumns.GridCols.InterestDesc:CORE,false,STRING,ACE.Extensions.BulkInterestLoader.Step4GridColumns.GridCols.InterestDesc:CORE:FieldType
Id,ACE.Extensions.BulkInterestLoader.Step4GridColumns.GridCols.InterestDesc:CORE,false,intSubDesc,ACE.Extensions.BulkInterestLoader.Step4GridColumns.GridCols.InterestDesc:CORE:Id
Label,ACE.Extensions.BulkInterestLoader.Step4GridColumns.GridCols.InterestDesc:CORE,false,Interest Subject Description,ACE.Extensions.BulkInterestLoader.Step4GridColumns.GridCols.InterestDesc:CORE:Label
Order,ACE.Extensions.BulkInterestLoader.Step4GridColumns.GridCols.InterestDesc:CORE,false,3,ACE.Extensions.BulkInterestLoader.Step4GridColumns.GridCols.InterestDesc:CORE:Order
Visible,ACE.Extensions.BulkInterestLoader.Step4GridColumns.GridCols.InterestDesc:CORE,false,TRUE,ACE.Extensions.BulkInterestLoader.Step4GridColumns.GridCols.InterestDesc:CORE:Visible
Width,ACE.Extensions.BulkInterestLoader.Step4GridColumns.GridCols.InterestDesc:CORE,false,140,ACE.Extensions.BulkInterestLoader.Step4GridColumns.GridCols.InterestDesc:CORE:Width
DataField,ACE.Extensions.BulkInterestLoader.Step4GridColumns.GridCols.InterestSubjectName:CORE,false,data.T1C_Base__Interest_Subject__r.Name,ACE.Extensions.BulkInterestLoader.Step4GridColumns.GridCols.InterestSubjectName:CORE:DataField
FieldType,ACE.Extensions.BulkInterestLoader.Step4GridColumns.GridCols.InterestSubjectName:CORE,false,STRING,ACE.Extensions.BulkInterestLoader.Step4GridColumns.GridCols.InterestSubjectName:CORE:FieldType
Id,ACE.Extensions.BulkInterestLoader.Step4GridColumns.GridCols.InterestSubjectName:CORE,false,IntsSubName,ACE.Extensions.BulkInterestLoader.Step4GridColumns.GridCols.InterestSubjectName:CORE:Id
Label,ACE.Extensions.BulkInterestLoader.Step4GridColumns.GridCols.InterestSubjectName:CORE,false,Interest Subject Name,ACE.Extensions.BulkInterestLoader.Step4GridColumns.GridCols.InterestSubjectName:CORE:Label
Order,ACE.Extensions.BulkInterestLoader.Step4GridColumns.GridCols.InterestSubjectName:CORE,false,2,ACE.Extensions.BulkInterestLoader.Step4GridColumns.GridCols.InterestSubjectName:CORE:Order
Visible,ACE.Extensions.BulkInterestLoader.Step4GridColumns.GridCols.InterestSubjectName:CORE,false,TRUE,ACE.Extensions.BulkInterestLoader.Step4GridColumns.GridCols.InterestSubjectName:CORE:Visible
Width,ACE.Extensions.BulkInterestLoader.Step4GridColumns.GridCols.InterestSubjectName:CORE,false,140,ACE.Extensions.BulkInterestLoader.Step4GridColumns.GridCols.InterestSubjectName:CORE:Width
DataField,ACE.Extensions.BulkInterestLoader.Step5Grid1Columns.GridCols.ContactName:CORE,false,contactName,ACE.Extensions.BulkInterestLoader.Step5Grid1Columns.GridCols.ContactName:CORE:DataField
FieldType,ACE.Extensions.BulkInterestLoader.Step5Grid1Columns.GridCols.ContactName:CORE,false,STRING,ACE.Extensions.BulkInterestLoader.Step5Grid1Columns.GridCols.ContactName:CORE:FieldType
Label,ACE.Extensions.BulkInterestLoader.Step5Grid1Columns.GridCols.ContactName:CORE,false,Contact Name,ACE.Extensions.BulkInterestLoader.Step5Grid1Columns.GridCols.ContactName:CORE:Label
Order,ACE.Extensions.BulkInterestLoader.Step5Grid1Columns.GridCols.ContactName:CORE,false,0,ACE.Extensions.BulkInterestLoader.Step5Grid1Columns.GridCols.ContactName:CORE:Order
Visible,ACE.Extensions.BulkInterestLoader.Step5Grid1Columns.GridCols.ContactName:CORE,false,TRUE,ACE.Extensions.BulkInterestLoader.Step5Grid1Columns.GridCols.ContactName:CORE:Visible
DataField,ACE.Extensions.BulkInterestLoader.Step5Grid1Columns.GridCols.InterestSubjectDescription:CORE,false,interestSubjectDescription,ACE.Extensions.BulkInterestLoader.Step5Grid1Columns.GridCols.InterestSubjectDescription:CORE:DataField
FieldType,ACE.Extensions.BulkInterestLoader.Step5Grid1Columns.GridCols.InterestSubjectDescription:CORE,false,STRING,ACE.Extensions.BulkInterestLoader.Step5Grid1Columns.GridCols.InterestSubjectDescription:CORE:FieldType
Label,ACE.Extensions.BulkInterestLoader.Step5Grid1Columns.GridCols.InterestSubjectDescription:CORE,false,Interest Subject Description,ACE.Extensions.BulkInterestLoader.Step5Grid1Columns.GridCols.InterestSubjectDescription:CORE:Label
Order,ACE.Extensions.BulkInterestLoader.Step5Grid1Columns.GridCols.InterestSubjectDescription:CORE,false,2,ACE.Extensions.BulkInterestLoader.Step5Grid1Columns.GridCols.InterestSubjectDescription:CORE:Order
Visible,ACE.Extensions.BulkInterestLoader.Step5Grid1Columns.GridCols.InterestSubjectDescription:CORE,false,TRUE,ACE.Extensions.BulkInterestLoader.Step5Grid1Columns.GridCols.InterestSubjectDescription:CORE:Visible
DataField,ACE.Extensions.BulkInterestLoader.Step5Grid1Columns.GridCols.InterestSubjectName:CORE,false,interestSubjectName,ACE.Extensions.BulkInterestLoader.Step5Grid1Columns.GridCols.InterestSubjectName:CORE:DataField
FieldType,ACE.Extensions.BulkInterestLoader.Step5Grid1Columns.GridCols.InterestSubjectName:CORE,false,STRING,ACE.Extensions.BulkInterestLoader.Step5Grid1Columns.GridCols.InterestSubjectName:CORE:FieldType
Label,ACE.Extensions.BulkInterestLoader.Step5Grid1Columns.GridCols.InterestSubjectName:CORE,false,Interest Subject Name,ACE.Extensions.BulkInterestLoader.Step5Grid1Columns.GridCols.InterestSubjectName:CORE:Label
Order,ACE.Extensions.BulkInterestLoader.Step5Grid1Columns.GridCols.InterestSubjectName:CORE,false,1,ACE.Extensions.BulkInterestLoader.Step5Grid1Columns.GridCols.InterestSubjectName:CORE:Order
Visible,ACE.Extensions.BulkInterestLoader.Step5Grid1Columns.GridCols.InterestSubjectName:CORE,false,TRUE,ACE.Extensions.BulkInterestLoader.Step5Grid1Columns.GridCols.InterestSubjectName:CORE:Visible
DataField,ACE.Extensions.BulkInterestLoader.Step5Grid2Columns.GridCols.ContactName:CORE,false,data.T1C_Base__Contact__r.Name,ACE.Extensions.BulkInterestLoader.Step5Grid2Columns.GridCols.ContactName:CORE:DataField
FieldType,ACE.Extensions.BulkInterestLoader.Step5Grid2Columns.GridCols.ContactName:CORE,false,STRING,ACE.Extensions.BulkInterestLoader.Step5Grid2Columns.GridCols.ContactName:CORE:FieldType
Label,ACE.Extensions.BulkInterestLoader.Step5Grid2Columns.GridCols.ContactName:CORE,false,Contact Name,ACE.Extensions.BulkInterestLoader.Step5Grid2Columns.GridCols.ContactName:CORE:Label
Order,ACE.Extensions.BulkInterestLoader.Step5Grid2Columns.GridCols.ContactName:CORE,false,0,ACE.Extensions.BulkInterestLoader.Step5Grid2Columns.GridCols.ContactName:CORE:Order
Visible,ACE.Extensions.BulkInterestLoader.Step5Grid2Columns.GridCols.ContactName:CORE,false,TRUE,ACE.Extensions.BulkInterestLoader.Step5Grid2Columns.GridCols.ContactName:CORE:Visible
DataField,ACE.Extensions.BulkInterestLoader.Step5Grid2Columns.GridCols.InterestSubjectDescription:CORE,false,data.T1C_Base__Interest_Subject__r.T1C_Base__Description__c,ACE.Extensions.BulkInterestLoader.Step5Grid2Columns.GridCols.InterestSubjectDescription:CORE:DataField
FieldType,ACE.Extensions.BulkInterestLoader.Step5Grid2Columns.GridCols.InterestSubjectDescription:CORE,false,STRING,ACE.Extensions.BulkInterestLoader.Step5Grid2Columns.GridCols.InterestSubjectDescription:CORE:FieldType
Label,ACE.Extensions.BulkInterestLoader.Step5Grid2Columns.GridCols.InterestSubjectDescription:CORE,false,Interest Subject Description,ACE.Extensions.BulkInterestLoader.Step5Grid2Columns.GridCols.InterestSubjectDescription:CORE:Label
Order,ACE.Extensions.BulkInterestLoader.Step5Grid2Columns.GridCols.InterestSubjectDescription:CORE,false,2,ACE.Extensions.BulkInterestLoader.Step5Grid2Columns.GridCols.InterestSubjectDescription:CORE:Order
Visible,ACE.Extensions.BulkInterestLoader.Step5Grid2Columns.GridCols.InterestSubjectDescription:CORE,false,TRUE,ACE.Extensions.BulkInterestLoader.Step5Grid2Columns.GridCols.InterestSubjectDescription:CORE:Visible
DataField,ACE.Extensions.BulkInterestLoader.Step5Grid2Columns.GridCols.InterestSubjectName:CORE,false,data.T1C_Base__Interest_Subject__r.Name,ACE.Extensions.BulkInterestLoader.Step5Grid2Columns.GridCols.InterestSubjectName:CORE:DataField
FieldType,ACE.Extensions.BulkInterestLoader.Step5Grid2Columns.GridCols.InterestSubjectName:CORE,false,STRING,ACE.Extensions.BulkInterestLoader.Step5Grid2Columns.GridCols.InterestSubjectName:CORE:FieldType
Label,ACE.Extensions.BulkInterestLoader.Step5Grid2Columns.GridCols.InterestSubjectName:CORE,false,Interest Subject Name,ACE.Extensions.BulkInterestLoader.Step5Grid2Columns.GridCols.InterestSubjectName:CORE:Label
Order,ACE.Extensions.BulkInterestLoader.Step5Grid2Columns.GridCols.InterestSubjectName:CORE,false,4,ACE.Extensions.BulkInterestLoader.Step5Grid2Columns.GridCols.InterestSubjectName:CORE:Order
Visible,ACE.Extensions.BulkInterestLoader.Step5Grid2Columns.GridCols.InterestSubjectName:CORE,false,TRUE,ACE.Extensions.BulkInterestLoader.Step5Grid2Columns.GridCols.InterestSubjectName:CORE:Visible
DataField,ACE.Extensions.BulkInterestLoader.Step5Grid3Columns.GridCols.ContactName:CORE,false,contactName,ACE.Extensions.BulkInterestLoader.Step5Grid3Columns.GridCols.ContactName:CORE:DataField
FieldType,ACE.Extensions.BulkInterestLoader.Step5Grid3Columns.GridCols.ContactName:CORE,false,STRING,ACE.Extensions.BulkInterestLoader.Step5Grid3Columns.GridCols.ContactName:CORE:FieldType
Label,ACE.Extensions.BulkInterestLoader.Step5Grid3Columns.GridCols.ContactName:CORE,false,Contact Name,ACE.Extensions.BulkInterestLoader.Step5Grid3Columns.GridCols.ContactName:CORE:Label
Order,ACE.Extensions.BulkInterestLoader.Step5Grid3Columns.GridCols.ContactName:CORE,false,0,ACE.Extensions.BulkInterestLoader.Step5Grid3Columns.GridCols.ContactName:CORE:Order
Visible,ACE.Extensions.BulkInterestLoader.Step5Grid3Columns.GridCols.ContactName:CORE,false,TRUE,ACE.Extensions.BulkInterestLoader.Step5Grid3Columns.GridCols.ContactName:CORE:Visible
DataField,ACE.Extensions.BulkInterestLoader.Step5Grid3Columns.GridCols.ErrorReason:CORE,false,errorReason,ACE.Extensions.BulkInterestLoader.Step5Grid3Columns.GridCols.ErrorReason:CORE:DataField
FieldType,ACE.Extensions.BulkInterestLoader.Step5Grid3Columns.GridCols.ErrorReason:CORE,false,STRING,ACE.Extensions.BulkInterestLoader.Step5Grid3Columns.GridCols.ErrorReason:CORE:FieldType
Label,ACE.Extensions.BulkInterestLoader.Step5Grid3Columns.GridCols.ErrorReason:CORE,false,Error Reason,ACE.Extensions.BulkInterestLoader.Step5Grid3Columns.GridCols.ErrorReason:CORE:Label
Order,ACE.Extensions.BulkInterestLoader.Step5Grid3Columns.GridCols.ErrorReason:CORE,false,3,ACE.Extensions.BulkInterestLoader.Step5Grid3Columns.GridCols.ErrorReason:CORE:Order
Visible,ACE.Extensions.BulkInterestLoader.Step5Grid3Columns.GridCols.ErrorReason:CORE,false,TRUE,ACE.Extensions.BulkInterestLoader.Step5Grid3Columns.GridCols.ErrorReason:CORE:Visible
DataField,ACE.Extensions.BulkInterestLoader.Step5Grid3Columns.GridCols.InterestSubjectName:CORE,false,interestSubjectName,ACE.Extensions.BulkInterestLoader.Step5Grid3Columns.GridCols.InterestSubjectName:CORE:DataField
FieldType,ACE.Extensions.BulkInterestLoader.Step5Grid3Columns.GridCols.InterestSubjectName:CORE,false,STRING,ACE.Extensions.BulkInterestLoader.Step5Grid3Columns.GridCols.InterestSubjectName:CORE:FieldType
Label,ACE.Extensions.BulkInterestLoader.Step5Grid3Columns.GridCols.InterestSubjectName:CORE,false,Interest Subject Name,ACE.Extensions.BulkInterestLoader.Step5Grid3Columns.GridCols.InterestSubjectName:CORE:Label
Order,ACE.Extensions.BulkInterestLoader.Step5Grid3Columns.GridCols.InterestSubjectName:CORE,false,1,ACE.Extensions.BulkInterestLoader.Step5Grid3Columns.GridCols.InterestSubjectName:CORE:Order
Visible,ACE.Extensions.BulkInterestLoader.Step5Grid3Columns.GridCols.InterestSubjectName:CORE,false,TRUE,ACE.Extensions.BulkInterestLoader.Step5Grid3Columns.GridCols.InterestSubjectName:CORE:Visible
